module github.com/ShinyTrinkets/spinal

go 1.12

require (
	github.com/ShinyTrinkets/meta-logger v0.2.0
	github.com/ShinyTrinkets/overseer v0.3.2
	github.com/azer/logger v1.0.0
	github.com/dgrijalva/jwt-go v3.2.0+incompatible // indirect
	github.com/facebookgo/clock v0.0.0-20150410010913-600d898af40a // indirect
	github.com/facebookgo/ensure v0.0.0-20160127193407-b4ab57deab51 // indirect
	github.com/facebookgo/freeport v0.0.0-20150612182905-d4adf43b75b9 // indirect
	github.com/facebookgo/grace v0.0.0-20180706040059-75cf19382434
	github.com/facebookgo/httpdown v0.0.0-20180706035922-5979d39b15c2 // indirect
	github.com/facebookgo/stack v0.0.0-20160209184415-751773369052 // indirect
	github.com/facebookgo/stats v0.0.0-20151006221625-1b76add642e4 // indirect
	github.com/facebookgo/subset v0.0.0-20150612182917-8dac2c3c4870 // indirect
	github.com/immortal/xtime v0.0.0-20170317233522-fb1aca1146ea
	github.com/jawher/mow.cli v1.1.0
	github.com/labstack/echo v3.3.10+incompatible
	github.com/labstack/gommon v0.2.9 // indirect
	github.com/stretchr/testify v1.3.0
	golang.org/x/crypto v0.0.0-20190611184440-5c40567a22f8 // indirect
	gopkg.in/yaml.v3 v3.0.0-20190502103701-55513cacd4ae
)
